\relax 
\providecommand\hyper@newdestlabel[2]{}
\catcode `^\active 
\catcode `"\active 
\catcode `'\active 
\catcode `-\active 
\providecommand\HyperFirstAtBeginDocument{\AtBeginDocument}
\HyperFirstAtBeginDocument{\ifx\hyper@anchor\@undefined
\global\let\oldcontentsline\contentsline
\gdef\contentsline#1#2#3#4{\oldcontentsline{#1}{#2}{#3}}
\global\let\oldnewlabel\newlabel
\gdef\newlabel#1#2{\newlabelxx{#1}#2}
\gdef\newlabelxx#1#2#3#4#5#6{\oldnewlabel{#1}{{#2}{#3}}}
\AtEndDocument{\ifx\hyper@anchor\@undefined
\let\contentsline\oldcontentsline
\let\newlabel\oldnewlabel
\fi}
\fi}
\global\let\hyper@last\relax 
\gdef\HyperFirstAtBeginDocument#1{#1}
\providecommand*\HyPL@Entry[1]{}
\bibstyle{biblatex}
\bibdata{report-blx,research}
\citation{biblatex-control}
\citation{*}
\citation{dota2}
\citation{conley}
\citation{kalyan}
\citation{conley}
\citation{steamapi}
\HyPL@Entry{0<</S/D>>}
\@writefile{toc}{\boolfalse {citerequest}\boolfalse {citetracker}\boolfalse {pagetracker}\boolfalse {backtracker}\relax }
\@writefile{lof}{\boolfalse {citerequest}\boolfalse {citetracker}\boolfalse {pagetracker}\boolfalse {backtracker}\relax }
\@writefile{lot}{\boolfalse {citerequest}\boolfalse {citetracker}\boolfalse {pagetracker}\boolfalse {backtracker}\relax }
\select@language{slovak}
\@writefile{toc}{\defcounter {refsection}{0}\relax }\@writefile{toc}{\select@language{slovak}}
\@writefile{lof}{\defcounter {refsection}{0}\relax }\@writefile{lof}{\select@language{slovak}}
\@writefile{lot}{\defcounter {refsection}{0}\relax }\@writefile{lot}{\select@language{slovak}}
\@writefile{toc}{\defcounter {refsection}{0}\relax }\@writefile{toc}{\contentsline {section}{Úvod}{1}{section*.1}}
\@writefile{toc}{\defcounter {refsection}{0}\relax }\@writefile{toc}{\contentsline {paragraph}{Úloha}{1}{section*.2}}
\@writefile{toc}{\defcounter {refsection}{0}\relax }\@writefile{toc}{\contentsline {paragraph}{Predchádzajúce práce}{1}{section*.3}}
\@writefile{toc}{\defcounter {refsection}{0}\relax }\@writefile{toc}{\contentsline {section}{Dáta}{1}{section*.4}}
\citation{conley}
\citation{scikit-learn}
\citation{hpopt}
\@writefile{toc}{\defcounter {refsection}{0}\relax }\@writefile{toc}{\contentsline {paragraph}{Podmienky na zápasy}{2}{section*.5}}
\@writefile{toc}{\defcounter {refsection}{0}\relax }\@writefile{toc}{\contentsline {paragraph}{Výber atribútov}{2}{section*.6}}
\@writefile{toc}{\defcounter {refsection}{0}\relax }\@writefile{toc}{\contentsline {section}{Implementácia}{2}{section*.7}}
\@writefile{toc}{\defcounter {refsection}{0}\relax }\@writefile{toc}{\contentsline {paragraph}{Technické problémy}{2}{section*.8}}
\@writefile{toc}{\defcounter {refsection}{0}\relax }\@writefile{toc}{\contentsline {section}{Použité metódy}{2}{section*.9}}
\@writefile{lof}{\defcounter {refsection}{0}\relax }\@writefile{lof}{\contentsline {figure}{\numberline {1}{\ignorespaces Učiaca krivka z testovacej množiny\relax }}{3}{figure.caption.12}}
\newlabel{logreg}{{1}{3}{Učiaca krivka z testovacej množiny\relax }{figure.caption.12}{}}
\@writefile{toc}{\defcounter {refsection}{0}\relax }\@writefile{toc}{\contentsline {subsection}{Logistická regresia}{3}{section*.10}}
\@writefile{lot}{\defcounter {refsection}{0}\relax }\@writefile{lot}{\contentsline {table}{\numberline {1}{\ignorespaces Metriky úspešnosti pre logistickú regresiu, trénované na celej trénovacej množine, presnosti z testovacej množiny\relax }}{3}{table.caption.11}}
\providecommand*\caption@xref[2]{\@setref\relax\@undefined{#1}}
\newlabel{logreg-tab}{{1}{3}{Metriky úspešnosti pre logistickú regresiu, trénované na celej trénovacej množine, presnosti z testovacej množiny\relax }{table.caption.11}{}}
\@writefile{toc}{\defcounter {refsection}{0}\relax }\@writefile{toc}{\contentsline {subsection}{Iné metódy}{3}{section*.13}}
\@writefile{lot}{\defcounter {refsection}{0}\relax }\@writefile{lot}{\contentsline {table}{\numberline {2}{\ignorespaces Porovnanie rôznych metód, presnosti na testovacej množine\relax }}{4}{table.caption.14}}
\newlabel{meth-tab}{{2}{4}{Porovnanie rôznych metód, presnosti na testovacej množine\relax }{table.caption.14}{}}
\@writefile{toc}{\defcounter {refsection}{0}\relax }\@writefile{toc}{\contentsline {subsection}{Synergia}{4}{section*.15}}
\@writefile{toc}{\defcounter {refsection}{0}\relax }\@writefile{toc}{\contentsline {subsubsection}{Učenie}{4}{section*.16}}
\@writefile{toc}{\defcounter {refsection}{0}\relax }\@writefile{toc}{\contentsline {subsubsection}{Predpovedanie pomocou synergie}{5}{section*.17}}
\@writefile{lot}{\defcounter {refsection}{0}\relax }\@writefile{lot}{\contentsline {table}{\numberline {3}{\ignorespaces Cross-validácia rôznych váh synergie, $i$ predstavuje veľkosť množiny hrdinov\relax }}{5}{table.caption.18}}
\newlabel{syn-tab}{{3}{5}{Cross-validácia rôznych váh synergie, $i$ predstavuje veľkosť množiny hrdinov\relax }{table.caption.18}{}}
\@writefile{lot}{\defcounter {refsection}{0}\relax }\@writefile{lot}{\contentsline {table}{\numberline {4}{\ignorespaces Najlepšia váha na testovacej množine\relax }}{5}{table.caption.19}}
\newlabel{syn-test}{{4}{5}{Najlepšia váha na testovacej množine\relax }{table.caption.19}{}}
\@writefile{toc}{\defcounter {refsection}{0}\relax }\@writefile{toc}{\contentsline {subsection}{Mix synergie a logistickej regresie}{5}{section*.20}}
\@writefile{lof}{\defcounter {refsection}{0}\relax }\@writefile{lof}{\contentsline {figure}{\numberline {2}{\ignorespaces Učiaca krivka z testovacej množiny\relax }}{6}{figure.caption.21}}
\newlabel{logreg-syn}{{2}{6}{Učiaca krivka z testovacej množiny\relax }{figure.caption.21}{}}
\citation{kalyan}
\@writefile{lot}{\defcounter {refsection}{0}\relax }\@writefile{lot}{\contentsline {table}{\numberline {5}{\ignorespaces Porovnanie logistickej regresie na testovacej množiny bez a so synergiou\relax }}{7}{table.caption.22}}
\newlabel{logreg-syn-tab}{{5}{7}{Porovnanie logistickej regresie na testovacej množiny bez a so synergiou\relax }{table.caption.22}{}}
\@writefile{toc}{\defcounter {refsection}{0}\relax }\@writefile{toc}{\contentsline {section}{Záver}{7}{section*.23}}
\newlabel{LastPage}{{}{8}{}{page.8}{}}
\xdef\lastpage@lastpage{8}
\xdef\lastpage@lastpageHy{8}
